{
  "about_digi":  {
    "en": "About Digi",
    "cy": "Am Digi",
    "fr": "À propos de Digi",
    "no": "Om Digi"
  },
  "about_description": {
    "en": "Digi is the bot interface of the Open Celtic Dictionary",
    "cy": "Digi ydy rhyngwyneb bot y Geiriadur Celtaidd Agored",
    "fr": "Digi est l'interface de bot du Dictionnaire Celtique Libre",
    "no": "Digi er boten til den Opne Keltiske Ordboka"
  },
  "command": {
    "en": "Commmand",
    "no": "Kommando"
  },
  "dictionary_search_body": {
    "en": "Please report any wrong conjugations or information :)\nDigi is now also available on http://digi.prv.cymru/ as well!"
  },
  "digi_version": {
    "en": "Digi version",
    "cy": "Fersiwn Digi",
    "fr": "Version Digi",
    "no": "Digi versjon"
  },
  "error_title": {
    "en": "An error occured",
    "cy": "Digwyddodd gwall",
    "fr": "Une erreur s'est produite",
    "no": "Ein feil oppstod"
  },
  "general": {
    "en": "General",
    "cy": "Cyffredinol",
    "fr": "Générales",
    "no": "Generelt"
  },
  "header_command_list": {
    "en": "List of commands",
    "cy": "Rhestr o orchmynion",
    "fr": "Liste des commandes",
    "no": "Liste over kommandoar"
  },
  "key_removal_successful": {
    "en": "Key removal successful",
    "no": "Fjerning av nøkkel suksessfull"
  },
  "missing_value": {
    "en": "Missing parameter for command",
    "no": "Mangler ein parameter til kommandoen"
  },
  "open_celtic_dictionary": {
    "en": "Open Celtic Dictionary",
    "cy": "Geiriadur Celtaidd Agored",
    "fr": "Dictionnaire Celtique Ouvert",
    "no": "Den Opne Keltiske Ordboka"
  },
  "unknown_command": {
    "en": "Unknown command '%s'",
    "cy": "Gorchymyn anhysbys '%s'",
    "fr": "Commande inconnue '%s'",
    "no": "Ukjent kommando %s"
  },
  "unknown_language": {
    "en": "Unknown language '%s'",
    "cy": "Iaith anhysbys '%s'",
    "fr": "Langue inconnue '%s'",
    "no": "Ukjent språk %s"
  },
  "unsupported_language": {
    "en": "Unsupported language '%s'",
    "cy": "Iaith heb gefnogaeth '%s'",
    "fr": "Langue non prise en charge '%s'",
    "no": "Ustøtta språk %s"
  },
  "repository": {
    "en": "Repository",
    "cy": "Cadwrfa",
    "fr": "Dépôt"
  },
  "twitter": {
    "en": "Twitter",
    "cy": "Trydar"
  },
  "version": {
    "en": "Version %s",
    "cy": "Fersiwn %s",
    "no": "Versjon %s"
  },
  "website": {
    "en": "Website",
    "cy": "Gwefan",
    "fr": "Site internet",
    "no": "Nettstad"
  },
  "word": {
    "en": "Word",
    "cy": "Gair",
    "fr": "Mot",
    "no": "Ord"
  }
}